ID;QUESTION;ANSWER1;ANSWER2;ANSWER3;ANSWER4;CORRECT_ANSWER
1;Polskim odpowiednikiem amerykańskiego baby shower jest:  ;bociankowe;prysznicowe;„500+”;becikowe;1
2;Ile punktów przyznaje się w koszykówce za rzut osobisty ?;1;2;0.5;3;1
3;Który z tych krajów leży w Azji ?;Islandia;Chiny;Chile;Chorwacja;2
4;Skąd pochodził wiedźmin Geralt ?;z Temerii;z Mordoru;z Oz;z Rivii;4
5;Co tradycyjnie króluje na wigilijnym stole ? ;Okoń;Szczupak;Karp;Karaś;3
6;W którym roku wybuchła II wojna światowa ?;w 1940;w 1914;w 1945;w 1939;4
7;Kto jest głową Kościoła Katolickiego ?;Prezydent;Papież;Iman;Dyrektor;2
8;Jaki jest najpopularniejszy sport zespołowy na świecie ?;piłka nożna;piłka ręczna;siatkówka;hokej;1
9;Jakie miasto jest stolicą Polski ? ;Tarnów;Kraków;Warszawa;Gdańsk;3
10;Z jakim państwem graniczy Polska ?;Francja;Hiszpania;Włochy;Niemcy;4