ID;QUESTION;ANSWER1;ANSWER2;ANSWER3;ANSWER4;CORRECT_ANSWER
1;Wokalistką Hey była:;Kora Jackowska;Agnieszka Chylińska;Katarzyna Nosowska;Anna Maria Jopek;3
2;Maria Antonina Habsburg była królową:;Francji;Anglii;Hiszpanii;Prus;1
3;Kto jest autorem cyklu o Muminkach?;Hans Christian Andersen;Bracia Grimm;Astrid Lindgren;Tove Jansson;4
4;Do którego kraju należy Korsyka?;Francja;Portugalia;Hiszpania;Włochy;1
5;Który z malarzy tworzył najwcześniej?;Claude Monet;Vincent van Gogh;Rembrandt;Salvador Dali;3
6;W tęczy po kolorze czerwonym, pomarańczowym i żółtym występuje kolor:;fioletowy;zielony;niebieski;różowy;2
7;Które afrykańskie państwo jest najludniejsze?;Kenia;Nigeria;Mozambik;RPA;2
8;Z pieriestrojką związany jest:;Włodzimierz Lenin;Józef Stalin;Adolf Hitler;Michaił Gorbaczow;4
9;Człowiek nieszczery i obłudny to:;Farbowany lis;Niebieski lis;Rudy lis;Pomalowany lis;1
10;20th Century Fox to jedna z głównych amerykańskich:;firm kosmetycznych;firm farmaceutycznych;rozgłośni radiowych ;wytwórni filmowych ;4