ID;QUESTION;ANSWER1;ANSWER2;ANSWER3;ANSWER4;CORRECT_ANSWER
1;Jak nazywa się współlokator i przyjaciel Sherlocka Holmesa?;Doktor Who;Doktor Żywago;Doktor Watson;Doktor James;3
2;Którego kraju prezydentem był Hugo Chavez?;Kuby;Meksyku;Wenezueli;Peru;3
3;Z ilu kości składa się szkielet dorosłego człowieka?;167;254;206;186;3
4;Który aktor zagrał rolę nauczyciela w filmie „Stowarzyszenie Umarłych Poetów”?;Robin Williams;Robert De Niro;Dustin Hoffman;Johnny Depp;1
5;Która sztuka nie jest autorstwa Moliera?;Otello;Mizantrop;Skąpiec;Świętoszek;1
6;Który taniec nie zalicza się do grupy tańców latynoamerykańskich?;Rumba;Pasodoble;Fokstrot;Samba;3
7;Magnez to:;niemetal;półmetal;gaz szlachetny;metal;4
8;Państwem położonym najbliżej Nowej Zelandii jest:;Tajlandia;Japonia;Argentyna;Australia;4
9;Jaki pierwiastek jest wykorzystywany do produkcji folii aluminiowej?;węgiel ;fosfor;glin;krzem;3
10;Nowy Orlean jest największym miastem stanu:;Floryda;Kentucky;Luizjana;Massachusetts;3