ID;QUESTION;ANSWER1;ANSWER2;ANSWER3;ANSWER4;CORRECT_ANSWER
1;Która miara użyta przez Eratostenesa z Cyreny posłużyła do obliczenia obwodu Ziemi?;mauzoleum;gimnazjon;stadion;agora;3
2;Kto jako 34-letni młodzieniec został pierwszym powojennym premierem Polski ?;hr. Stanisław Małachowski;Edward Osóbka-Morawski;Władysław Grabski;Wincenty Witos;2
3;Jak zostali przedstawieni Cyganie w komiksie Arta Spiegelmana „Maus” ?;jako konie;jako kury;jako psy;jako ćmy;4
4;Co na Srebrnym Globie zrobił Alan Shepard?;zagrał w golfa;biegał z siatką na motyle;zatańczył rock and rolla;godzinę leżał krzyżem;1
5;Od czego pochodzi nazwa zespołu Kwiat Jabłoni, założonego w 2018 r. przez Katarzynę i Jacka Sienkiewiczów?;Od snobistycznego klubu;od kiczowatego obrazu;od luksusowego auta;od taniego wina;4
6;Czego zażądał od Dawida król Saul za rękę córki Mikal ?;dziesięciorga usług rzymian;tysiąca głów moabitów;stu napletków filistynów;miliona dłoni edomitów;3
7;Jaki ptak ma oczy osadzone frontalnie i otoczone promieniście ułożonymi piórami? ;brzegówka;dymówka;płomykówka;bogatka;4
8;Skąd przywędrowała tempura w XVI wieku do Japonii? ;z Holandii;z Portugalii;z Rosji;z Chin ;2
9;Starte ziemniaki i mąka to w zasadzie wszystko, czego potrzebujemy na tak zwane kluski:;żelazne;szklane;plastikowe;papierowe;1
10;Jednostka miary reaktywności reaktora jądrowego to:;euro;złoty;dolar;rubel;3