ID;QUESTION;ANSWER1;ANSWER2;ANSWER3;ANSWER4;CORRECT_ANSWER
1;Jaki jest najwyższy szczyt w Polsce ?;Giewont ;Trzy Korony;Kondracka Kopa;Rysy;4
2;Kogo rekord pobił Robert Lewandowski w 2021 roku ?;Lionela Messiego;Gerda Mullera;Thomasa Mullera;Manuela Neura;2
3;Ile wynosi najdłuższy skok w historii skoków narciarskich ?;253.5 m;260 m;250 m;249 m;1
4;kto jest autorem poematu „Pan Tadeusz” ? ;Juliusz Słowacki;Cyprian Norwid;Adam Mickiewicz;Jan Twardowski;3
5;Z jakiej książki pochodzą słowa być albo nie być ?;Dziady cz.III;Romeo i Julia;Makbet;Hamlet;4
6;Kiedy wypada kolejny rok przestępny ? ;2024;2028;2025;2026;1
7;W którym roku została wydana kultowa gra Counter Strike GO ? ;2011;2008;2012;2010;3
8;Z ilu książek składa się „Władca Pierścieni” ? ;4;8;3;6;4
9;W którym roku odbyła się bitwa pod Termopilami ? ;490 p.n.e.;480 p.n.e.;485 p.n.e.;470 p.n.e.;2
10;Jak nazywa się obecny kanclerz Niemiec ?;Olaf Scholz;Angela Merkel;Olaf Schulz;Helmut Scholz;1