ID;QUESTION;ANSWER1;ANSWER2;ANSWER3;ANSWER4;CORRECT_ANSWER
1;kto jest obecnym trenerem Manchesteru United ? ;Alex Ferguson;Ralph Rangnick;Ole Solksjaer;Julian Nagelsmann;2
2;w którym roku Abraham Lincoln objął urząd prezydenta USA ? ;1865;1866;1862;1861;4
3;jakiego państwa stolicą jest Prisztina ? ;Kosowo;Bułgaria;Serbia;Chorwacja;1
4;jak nazywa się trzecia najdłuższa rzeka na świecie ?;Huang He;Amazonka;Jangcy;Nil;3
5;kto jest założycielem KFC ? ;Harland Sanders;Peter Buck;Richard McDonald;Gordon Bowker;1
6;czym jest arachnofobia ?;strach przed ludźmi;strach przed pająkami;strach przed psami;strach przed jaszczurkami;2
7;w którym roku została wydana gra Gothic 1 ? ;2000;2002;1999;2001;4
8;w którym roku została założona grupa muzyczna the Beatles ? ;1959;1960;1958;1970;2
9;jak nazywa się rozproszony system kontroli wersji ? ;Kit;Hit;Git;Lit;3
10;ile aktualnie wynosi podstawowa stawka podatku VAT w Polsce ? ;23,00%;25,00%;21,00%;16,00%;1