ID;QUESTION;ANSWER1;ANSWER2;ANSWER3;ANSWER4;CORRECT_ANSWER
1;Z iloma krajami garniczy Polska ?;7;8;9;12;1
2;Ile złotych medali olimpijskich zdobył Adam Małysz?;0;1;2;3;1
3;Największy ocean na Ziemi to?;Ocean Indyjski;Ocean Atlantycki;Ocean Spokojny;Ocean Arktyczny;3
4;Olga Tokarczuk nie napisała:;Biegunów;Ksiąg Jakubowych;Czułego narratora;Lodu;4
5;Panczeniści do uprawiania swojego sportu potrzebują:;karabinku;łyżew;nart;kijków;2
6;Kto został królem Anglii po bitwie pod Hastings?;Henryk Zdobywca;Wilhelm Zdobywca;Karol Zdobywca;William Zdobywca;2
7;Michael Jordan zdobył tytuł mistrza NBA z drużyną:;Chicago Bulls;Houston Rockets;Boston Celtics;Brooklyn Nets;1
8;Najdłuższą rzeką w Polsce jest Wisła. Ile kilometrów mierzy?;1134;986;1047;1520;3
9;Jak nazywał się brat Bolesława Krzywoustego?;Mieszko;Jarosław;Zbigniew;Tadeusz;3
10;Religią dominującą w Japonii jest buddyzm oraz…;chrześcijaństwo;islam;religie chińskie;szinto;4