ID;QUESTION;ANSWER1;ANSWER2;ANSWER3;ANSWER4;CORRECT_ANSWER
1;Słynna bitwa pod Racławicami miała miejsce w czasie:;Powstania listopadowego;Powstania styczniowego;Insurekcji kościuszkowskiej;Powstania warszawskiego;3
2;Muł to krzyżówka:;klaczy osła i ogiera konia;krowy i ogiera konia;kucyka i ogiera osła;klaczy konia i ogiera osła;4
3;Wilk szary to:;canis lupus;cricetulus griseus;equus caballus;vulpes vulpes;1
4;Strój w islamie zakrywający całkowicie ciało i twarz kobiety to :;nikab;burka;czador;hidżab;2
5;Interlokutor to inaczej:;kalkulator;rozmówca;lokator;nauczyciel;2
6;Freddie Mercury naprawdę nazywał się:;Farrokh Bulsara;Cordozer Calvin Broadus;Kenan Dogulu;Orhan Gencebay;1
7;Na banknocie 20 zł widać profil:;Bolesława I Chrobrego;Królowej Jadwigi;Jana III Sobieskiego;Zygmunta III Wazy;1
8;Technika wokalna znana z bardziej ekstremalnych odmian muzyki metalowej:;jodłowanie;soul;trash;growl;4
9;Główny składnik piwa to:;słód;soda;woda;chmiel;3
10;Tradycyjne gruzińskie chinkali wypełnione są:;kozim serem;owczym serem;pieczarkami;mięsem;4